images/wave.vcd
$date
	Thu Jan 22 12:54:28 2026
$end
$version
	GTKWave Analyzer v3.3.100 (w)1999-2019 BSI
$end
$timescale
	1ps
$end
$scope module u_dut $end
$var wire 1 " clk $end
$var wire 1 & last_word $end
$var wire 1 # reset_n $end
$var wire 32 ' data_in[31:0] $end
$var wire 32 ( crc_out[31:0] $end
$var wire 1 $ enable $end
$var wire 1 % start_of_packet $end
$var wire 1 ) valid_out $end
$upscope $end
$enddefinitions $end
$dumpvars
#0
0%
0)
0&
0"
b0 '
0$
b0 (
0#
#5000
1"
#10000
0"
#15000
1"
#20000
0"
#25000
1"
#30000
0"
#35000
1"
#40000
0"
#45000
1"
#50000
0"
#55000
1"
1#
#60000
0"
#65000
1"
#70000
0"
#75000
1"
1%
b10010001101000101011001111000 '
1$
#80000
0"
#85000
1"
1&
b10011010101111001101111011110000 '
b10101111011011011000011111010010 (
0%
#90000
0"
#95000
1"
1)
0$
b10000110100000101001110111101011 (
0&
b0 '
#100000
0"
#105000
1"
0)
#110000
0"
#115000
1"
#120000
0"
#125000
1"
#130000
0"
#135000
1"
1%
b10010001101000101011001111000 '
1&
1$
#140000
0"
#145000
1"
0$
1)
0%
0&
b0 '
b10101111011011011000011111010010 (
#150000
0"
#155000
1"
0)
#160000
0"
#165000
1"
#170000
0"
#175000
1"
#180000
0"
#185000
1"
#190000
0"
#195000
1"
#200000
0"
#205000
1"
1$
b10010001101000101011001111001 '
1%
1&
#210000
0"
#215000
1"
0&
b10111110100011110000010110111 (
1)
0%
0$
b0 '
#220000
0"
#225000
1"
0)
#230000
0"
#235000
1"
#240000
0"
#245000
1"
#250000
0"
#255000
1"
#260000
0"
#265000
1"
#270000
0"
#275000
1"
b10001001000100011001101000100 '
1$
1%
#280000
0"
#285000
1"
0%
b11011110000111010010110101101101 (
b1010101011001100111011110001000 '
#290000
0"
#295000
1"
b10011001101010101011101111001100 '
b10111011011110011111111100101 (
#300000
0"
#305000
1"
b10100110110011110000000111011000 (
b11011101111011101111111100000000 '
#310000
0"
#315000
1"
b11011110101011011011111011101111 '
1&
b110110101101101010110111100111 (
#320000
0"
#325000
1"
b11111101011101110100101100001010 (
b0 '
0&
1)
0$
